home/djameson/tests/max-clique-channel
========== Output ==========

real	1m54.022s
user	1m53.436s
sys	0m0.576s
/home/djameson/tests/max-clique-chan-stealy
========== Output ==========

real	0m31.450s
user	8m34.676s
sys	0m18.380s
/home/djameson/tests/max-clique-chonk
========== Output ==========

real	0m18.103s
user	4m20.752s
sys	0m33.888s
/home/djameson/tests/max-clique-clone-once
========== Output ==========

real	0m20.110s
user	5m10.160s
sys	0m31.628s
/home/djameson/tests/max-clique-clone-once-jet
========== Output ==========

real	0m20.140s
user	5m12.488s
sys	0m37.408s
/home/djameson/tests/max-clique-multithread
========== Output ==========

real	0m19.056s
user	4m21.204s
sys	0m20.144s
/home/djameson/tests/max-clique-multithread2
========== Output ==========

real	0m20.323s
user	5m8.920s
sys	0m15.704s
/home/djameson/tests/max-clique-pqueue
========== Output ==========

real	1m43.350s
user	1m42.940s
sys	0m0.400s
/home/djameson/tests/max-clique-skip-jet
========== Output ==========

real	0m18.008s
user	4m28.252s
sys	0m32.904s
/home/djameson/tests/max-clique-stealy
========== Output ==========

real	0m33.709s
user	8m21.740s
sys	0m9.248s
/home/djameson/tests/max-clique-vari-chonk
========== Output ==========

real	0m20.837s
user	5m11.432s
sys	0m25.700s

