/home/djameson/things/channel_stealy ./107.edges 50 -1.0 0.9 0 10 0:15.86
/home/djameson/things/channel_stealy ./107.edges 50 -0.5 0.9 0 10 0:15.55
/home/djameson/things/channel_stealy ./107.edges 50 0.0 0.9 0 10 0:15.20
/home/djameson/things/channel_stealy ./107.edges 50 0.5 0.9 0 10 0:14.78
/home/djameson/things/channel_stealy ./107.edges 50 1.0 0.9 0 10 0:15.93
/home/djameson/things/disgusting_chain ./107.edges 50 -1.0 0.9 0 10 0:12.58
/home/djameson/things/disgusting_chain ./107.edges 50 -0.5 0.9 0 10 0:12.09
/home/djameson/things/disgusting_chain ./107.edges 50 0.0 0.9 0 10 0:11.90
/home/djameson/things/disgusting_chain ./107.edges 50 0.5 0.9 0 10 0:10.93
/home/djameson/things/disgusting_chain ./107.edges 50 1.0 0.9 0 10 0:11.66
/home/djameson/things/stealy_stealy ./107.edges 50 -1.0 0.9 0 10 0:14.08
/home/djameson/things/stealy_stealy ./107.edges 50 -0.5 0.9 0 10 0:14.70
/home/djameson/things/stealy_stealy ./107.edges 50 0.0 0.9 0 10 0:13.86
/home/djameson/things/stealy_stealy ./107.edges 50 0.5 0.9 0 10 0:14.95
/home/djameson/things/stealy_stealy ./107.edges 50 1.0 0.9 0 10 0:15.87
