/home/djameson/things/channel_stealy ./107.edges 50 0.99 0.9 0 10 0:16.42
/home/djameson/things/channel_stealy ./107.edges 50 0.99 0.9 1 10 1:15.29
/home/djameson/things/channel_stealy ./107.edges 50 0.99 0.9 2 10 4:37.47
/home/djameson/things/disgusting_chain ./107.edges 50 0.99 0.9 0 10 0:11.58
/home/djameson/things/disgusting_chain ./107.edges 50 0.99 0.9 1 10 1:26.55
/home/djameson/things/disgusting_chain ./107.edges 50 0.99 0.9 2 10 5:56.44
/home/djameson/things/stealy_stealy ./107.edges 50 0.99 0.9 0 10 0:13.09
/home/djameson/things/stealy_stealy ./107.edges 50 0.99 0.9 1 10 0:44.63
/home/djameson/things/stealy_stealy ./107.edges 50 0.99 0.9 2 10 2:16.97
