{
    "1": ["2"],
    "2": ["2", "3", "8", "9", "11"],
    "3": ["4", "8", "9", "10", "11"],
    "4": ["5", "6"],
    "5": ["6"],
    "7": ["8"],
    "8": ["9", "11"],
    "9": ["11"],
    "11": ["12", "13"]
}
